Case Study: NYC Resturants Inspection
…
Begin Text Analysis with tidytext

## # A tibble: 252 x 2
##    word               n
##    <chr>          <int>
##  1 food          110689
##  2 flies          85692
##  3 contamination  23299
##  4 preparation    21177
##  5 mice           18266
##  6 held           17292
##  7 item           15066
##  8 sanitized      15043
##  9 sewage         14303
## 10 filth          14282
## # ... with 242 more rows
…
