NYC Resturant Inspections
…
text_tokins <- text_df %>%
  unnest_tokens(word, text)

data(stop_words)
tidy_stop <- text_tokins %>%
  anti_join(stop_words)

## Joining, by = "word"

tidy_stop %>%
  count(word, sort = TRUE) 

## # A tibble: 252 x 2
##    word               n
##    <chr>          <int>
##  1 food          110689
##  2 flies          85692
##  3 contamination  23299
##  4 preparation    21177
##  5 mice           18266
##  6 held           17292
##  7 item           15066
##  8 sanitized      15043
##  9 sewage         14303
## 10 filth          14282
## # ... with 242 more rows
…
data("stop_words")
text_tokins <- text_df %>%
  unnest_tokens(ngram, text,token = "ngrams",n=2) %>%
  rename(word = ngram)

tidy_stop <- text_tokins %>%
anti_join(stop_words)

## Joining, by = "word"

 tidy_stop %>%
  count(word, sort = TRUE) 

## # A tibble: 616 x 2
##    word              n
##    <chr>         <int>
##  1 and or        19583
##  2 food and      19445
##  3 food areas    19445
##  4 non food      19445
##  5 or non        19445
##  6 present in    19445
##  7 food item     15066
##  8 filth flies   14282
##  9 flies and     14282
## 10 flies include 14282
## # ... with 606 more rows
…
